<?xml version="1.0" encoding="utf-8"?>
<!-- Generator: Adobe Illustrator 22.1.0, SVG Export Plug-In . SVG Version: 6.00 Build 0)  -->
<svg version="1.1" id="Layer_1" xmlns="http://www.w3.org/2000/svg" xmlns:xlink="http://www.w3.org/1999/xlink" x="0px" y="0px"
	 viewBox="0 0 20 20" style="enable-background:new 0 0 20 20;" xml:space="preserve">
<style type="text/css">
	.st0{fill:none;stroke:#FF9333;stroke-width:3;stroke-linecap:round;stroke-linejoin:round;stroke-miterlimit:10;}
</style>
<g>
	<path class="st0" d="M12.6,10c3.2-3.3,5.9-6,5.9-6S15.9,6.7,12.6,10s-5.9,6-5.9,6S9.4,13.3,12.6,10z"/>
	<path class="st0" d="M4.1,13.5C5.6,14.9,6.7,16,6.7,16S5.6,14.9,4.1,13.5S1.5,11,1.5,11S2.7,12.2,4.1,13.5z"/>
</g>
</svg>
