<?xml version="1.0" encoding="utf-8"?>
<!-- Generator: Adobe Illustrator 22.1.0, SVG Export Plug-In . SVG Version: 6.00 Build 0)  -->
<svg version="1.1" id="Capa_1" xmlns="http://www.w3.org/2000/svg" xmlns:xlink="http://www.w3.org/1999/xlink" x="0px" y="0px"
	 viewBox="0 0 24 24" style="enable-background:new 0 0 24 24;" xml:space="preserve">
<style type="text/css">
	.st0{fill:none;stroke:#B8B8B8;stroke-width:3;stroke-miterlimit:10;}
</style>
<g>
	<circle class="st0" cx="12" cy="12" r="10.4"/>
	<polyline class="st0" points="12,7.9 12,12 16.4,16.4 	"/>
</g>
</svg>
