<?xml version="1.0" encoding="utf-8"?>
<!-- Generator: Adobe Illustrator 22.1.0, SVG Export Plug-In . SVG Version: 6.00 Build 0)  -->
<svg version="1.1" id="Capa_1" xmlns="http://www.w3.org/2000/svg" xmlns:xlink="http://www.w3.org/1999/xlink" x="0px" y="0px"
	 viewBox="0 0 24 24" style="enable-background:new 0 0 24 24;" xml:space="preserve">
<style type="text/css">
	.st0{fill:#727070;}
</style>
<g>
	<g>
		<path id="path-0" class="st0" d="M12,0.2c-0.7,0-1.4,0.6-1.4,1.4C10.6,2.3,11.2,3,12,3c0.7,0,1.4-0.6,1.4-1.4S12.7,0.2,12,0.2
			L12,0.2z M15.3,1.2c-0.4,0-0.7,0.2-0.9,0.6c-0.1,0.2-0.1,0.5,0,0.7c0.1,0.2,0.3,0.4,0.5,0.5c0.1,0,0.2,0.1,0.4,0.1
			c0.4,0,0.7-0.2,0.9-0.6c0.2-0.5,0-1.1-0.5-1.3C15.5,1.3,15.4,1.2,15.3,1.2L15.3,1.2z M8.7,1.2c-0.1,0-0.3,0-0.4,0.1
			C8.1,1.4,7.9,1.6,7.8,1.8s-0.1,0.5,0,0.7C8,2.9,8.3,3.2,8.7,3.2c0.1,0,0.3,0,0.4-0.1C9.3,3,9.5,2.8,9.6,2.6s0.1-0.5,0-0.7
			C9.5,1.5,9.1,1.2,8.7,1.2L8.7,1.2z M18.1,2.7c-0.3,0-0.7,0.1-1,0.4c-0.5,0.5-0.5,1.4,0,1.9c0.3,0.3,0.6,0.4,1,0.4
			c0.3,0,0.7-0.1,1-0.4c0.5-0.5,0.5-1.4,0-1.9C18.8,2.8,18.4,2.7,18.1,2.7L18.1,2.7z M5.9,2.7c-0.3,0-0.7,0.1-1,0.4
			C4.5,3.6,4.5,4.5,5,5c0.3,0.3,0.6,0.4,1,0.4c0.3,0,0.7-0.1,1-0.4c0.5-0.5,0.5-1.4,0-1.9C6.6,2.8,6.3,2.7,5.9,2.7L5.9,2.7z
			 M19.9,5.9c-0.1,0-0.3,0-0.4,0.1C19,6.2,18.8,6.8,19,7.2l0,0c0.2,0.4,0.5,0.6,0.9,0.6c0.1,0,0.3,0,0.4-0.1
			c0.2-0.1,0.4-0.3,0.5-0.5s0.1-0.5,0-0.7C20.7,6.1,20.3,5.9,19.9,5.9L19.9,5.9z M4.1,5.9c-0.4,0-0.7,0.2-0.9,0.6
			C3.1,6.7,3.1,7,3.2,7.2c0.1,0.2,0.3,0.4,0.5,0.5c0.1,0,0.2,0.1,0.4,0.1c0.4,0,0.7-0.2,0.9-0.6C5.1,7,5.1,6.7,5,6.5S4.7,6.1,4.5,6
			S4.2,5.9,4.1,5.9L4.1,5.9z M3.4,8.8C2.7,8.8,2,9.4,2,10.2c0,0.7,0.6,1.4,1.4,1.4s1.4-0.6,1.4-1.4C4.8,9.4,4.2,8.8,3.4,8.8L3.4,8.8
			z M20.6,8.8c-0.7,0-1.4,0.6-1.4,1.4c0,0.7,0.6,1.4,1.4,1.4c0.7,0,1.4-0.6,1.4-1.4C21.9,9.4,21.3,8.8,20.6,8.8L20.6,8.8z
			 M19.9,12.4c-0.4,0-0.7,0.2-0.9,0.6c-0.2,0.5,0,1.1,0.5,1.3c0.1,0,0.2,0.1,0.4,0.1c0.4,0,0.7-0.2,0.9-0.6c0.2-0.5,0-1.1-0.5-1.3
			C20.2,12.5,20.1,12.4,19.9,12.4L19.9,12.4z M4.1,12.5c-0.1,0-0.3,0-0.4,0.1c-0.5,0.2-0.7,0.8-0.5,1.2l0,0c0.2,0.4,0.5,0.6,0.9,0.6
			c0.1,0,0.3,0,0.4-0.1C5,14.1,5.2,13.5,5,13C4.8,12.7,4.5,12.5,4.1,12.5L4.1,12.5z M18.1,14.8c-0.3,0-0.7,0.1-1,0.4
			c-0.5,0.5-0.5,1.4,0,1.9c0.3,0.3,0.6,0.4,1,0.4c0.3,0,0.7-0.1,1-0.4c0.5-0.5,0.5-1.4,0-1.9C18.8,15,18.4,14.8,18.1,14.8L18.1,14.8
			z M5.9,14.8c-0.3,0-0.7,0.1-1,0.4c-0.5,0.5-0.5,1.4,0,1.9c0.3,0.3,0.6,0.4,1,0.4c0.3,0,0.7-0.1,1-0.4c0.5-0.5,0.5-1.4,0-1.9
			C6.6,15,6.3,14.8,5.9,14.8L5.9,14.8z M15.3,17.1c-0.1,0-0.3,0-0.4,0.1c-0.5,0.2-0.7,0.8-0.5,1.3c0.2,0.4,0.5,0.6,0.9,0.6
			c0.1,0,0.3,0,0.4-0.1c0.2-0.1,0.4-0.3,0.5-0.5s0.1-0.5,0-0.7C16,17.3,15.7,17.1,15.3,17.1L15.3,17.1z M8.7,17.1
			c-0.4,0-0.7,0.2-0.9,0.6c-0.1,0.2-0.1,0.5,0,0.7s0.3,0.4,0.5,0.5C8.5,19,8.6,19,8.7,19c0.4,0,0.7-0.2,0.9-0.6
			c0.1-0.2,0.1-0.5,0-0.7s-0.3-0.4-0.5-0.5C9,17.1,8.9,17.1,8.7,17.1L8.7,17.1z M12,17.3c-0.7,0-1.4,0.6-1.4,1.4
			c0,0.7,0.6,1.4,1.4,1.4c0.7,0,1.4-0.6,1.4-1.4C13.4,18,12.7,17.3,12,17.3L12,17.3z M12,21.9c-0.4,0-0.7,0.2-0.9,0.6
			c-0.1,0.2-0.1,0.5,0,0.7s0.3,0.4,0.5,0.5c0.1,0,0.2,0.1,0.4,0.1c0.4,0,0.7-0.2,0.9-0.6c0.1-0.2,0.1-0.5,0-0.7s-0.3-0.4-0.5-0.5
			C12.3,21.9,12.1,21.9,12,21.9L12,21.9z"/>
	</g>
	<g>
		<path class="st0" d="M4.8,15.1c-0.3,0.3-0.5,0.7-0.5,1.1c0,0.4,0.2,0.8,0.5,1.1c0.3,0.3,0.7,0.5,1.1,0.5s0.8-0.2,1.1-0.5
			c0.6-0.6,0.6-1.6,0-2.2C6.5,14.5,5.4,14.5,4.8,15.1z"/>
		<path class="st0" d="M4.8,3C4.5,3.3,4.4,3.7,4.4,4.1s0.2,0.8,0.5,1.1C5.2,5.5,5.6,5.7,6,5.7s0.8-0.2,1.1-0.5s0.5-0.7,0.5-1.1
			C7.5,3.7,7.3,3.3,7,3C6.5,2.4,5.4,2.4,4.8,3z"/>
		<path class="st0" d="M5.2,13c-0.2-0.6-0.9-0.9-1.5-0.6c-0.6,0.2-0.9,0.9-0.6,1.5c0.2,0.4,0.6,0.7,1.1,0.7c0.2,0,0.3,0,0.4-0.1
			C5.1,14.2,5.4,13.6,5.2,13z"/>
		<path class="st0" d="M8.7,3.4c0.2,0,0.3,0,0.4-0.1C9.4,3.2,9.6,3,9.7,2.7s0.1-0.6,0-0.9C9.6,1.2,8.9,0.9,8.3,1.1
			C8,1.3,7.8,1.5,7.6,1.8c-0.1,0.3-0.1,0.6,0,0.9C7.8,3.1,8.2,3.4,8.7,3.4z"/>
		<path class="st0" d="M9.2,17c-0.6-0.2-1.3,0.1-1.5,0.6c-0.1,0.3-0.1,0.6,0,0.9C7.8,18.8,8,19,8.3,19.1c0.1,0.1,0.3,0.1,0.4,0.1
			c0.5,0,0.9-0.3,1.1-0.7c0.1-0.3,0.1-0.6,0-0.9C9.7,17.3,9.5,17.1,9.2,17z"/>
		<path class="st0" d="M5,10.1c0-0.9-0.7-1.6-1.6-1.6s-1.6,0.7-1.6,1.6s0.7,1.6,1.6,1.6C4.3,11.7,5,11,5,10.1z"/>
		<path class="st0" d="M18.9,7.3C19,7.7,19.5,8,19.9,8c0.2,0,0.3,0,0.4-0.1c0.3-0.1,0.5-0.3,0.6-0.6C21,7,21,6.7,20.9,6.4
			c-0.2-0.6-0.9-0.9-1.5-0.6C18.9,6,18.6,6.7,18.9,7.3z"/>
		<path class="st0" d="M3.6,7.9C3.8,8,3.9,8,4.1,8C4.6,8,5,7.7,5.2,7.3c0.1-0.3,0.1-0.6,0-0.9C5,6.1,4.8,5.9,4.5,5.8
			C4,5.5,3.3,5.8,3,6.4C2.9,6.7,2.9,7,3,7.3C3.1,7.6,3.4,7.8,3.6,7.9z"/>
		<path class="st0" d="M17,15.1c-0.6,0.6-0.6,1.6,0,2.2c0.3,0.3,0.7,0.5,1.1,0.5s0.8-0.2,1.1-0.5c0.6-0.6,0.6-1.6,0-2.2
			C18.6,14.5,17.5,14.5,17,15.1z"/>
		<path class="st0" d="M18.1,5.6c0.4,0,0.8-0.2,1.1-0.5c0.3-0.3,0.5-0.7,0.5-1.1s-0.2-0.8-0.5-1.1c-0.6-0.6-1.6-0.6-2.2,0
			c-0.3,0.3-0.5,0.7-0.5,1.1s0.2,0.8,0.5,1.1C17.3,5.5,17.6,5.6,18.1,5.6z"/>
		<path class="st0" d="M20.4,12.3c-0.6-0.2-1.3,0.1-1.5,0.6c-0.1,0.3-0.1,0.6,0,0.9s0.3,0.5,0.6,0.6c0.1,0.1,0.3,0.1,0.4,0.1
			c0.5,0,0.9-0.3,1.1-0.7C21.3,13.3,21,12.6,20.4,12.3z"/>
		<path class="st0" d="M20.6,8.6c-0.9,0-1.6,0.7-1.6,1.6c0,0.9,0.7,1.6,1.6,1.6c0.4,0,0.8-0.2,1.1-0.5s0.5-0.7,0.5-1.1
			C22.1,9.3,21.4,8.6,20.6,8.6z"/>
		<path class="st0" d="M14.9,17c-0.3,0.1-0.5,0.3-0.6,0.6s-0.1,0.6,0,0.9c0.2,0.4,0.6,0.7,1.1,0.7c0.2,0,0.3,0,0.4-0.1
			c0.3-0.1,0.5-0.3,0.6-0.6c0.1-0.3,0.1-0.6,0-0.9C16.1,17,15.4,16.7,14.9,17z"/>
		<path class="st0" d="M12.4,21.8c-0.6-0.2-1.3,0.1-1.5,0.6c-0.1,0.3-0.1,0.6,0,0.9s0.3,0.5,0.6,0.6C11.7,24,11.8,24,12,24
			c0.5,0,0.9-0.3,1.1-0.7c0.1-0.3,0.1-0.6,0-0.9S12.7,21.9,12.4,21.8z"/>
		<path class="st0" d="M14.8,3.3c0.1,0.1,0.3,0.1,0.4,0.1c0.5,0,0.9-0.3,1.1-0.7c0.2-0.6,0-1.3-0.6-1.5s-1.3,0.1-1.5,0.6
			c-0.1,0.3-0.1,0.6,0,0.9C14.3,2.9,14.5,3.2,14.8,3.3z"/>
		<path class="st0" d="M12,17.1c-0.9,0-1.6,0.7-1.6,1.6s0.7,1.6,1.6,1.6c0.9,0,1.6-0.7,1.6-1.6S12.9,17.1,12,17.1z"/>
		<path class="st0" d="M12,0c-0.4,0-0.8,0.2-1.1,0.5s-0.5,0.7-0.5,1.1c0,0.9,0.7,1.6,1.6,1.6c0.9,0,1.6-0.7,1.6-1.6S12.9,0,12,0z"/>
	</g>
</g>
</svg>
