<?xml version="1.0" encoding="utf-8"?>
<!-- Generator: Adobe Illustrator 22.1.0, SVG Export Plug-In . SVG Version: 6.00 Build 0)  -->
<svg version="1.1" id="Capa_1" xmlns="http://www.w3.org/2000/svg" xmlns:xlink="http://www.w3.org/1999/xlink" x="0px" y="0px"
	 viewBox="0 0 24 24" style="enable-background:new 0 0 24 24;" xml:space="preserve">
<style type="text/css">
	.st0{fill:none;stroke:#FF9333;stroke-width:1.3696;stroke-miterlimit:10;}
</style>
<g>
	<circle class="st0" cx="12" cy="5.2" r="4.5"/>
	<path class="st0" d="M20.3,23.2H3.7C3.3,23.2,3,23,3,22.6V21c0-5,4-9,9-9l0,0c5,0,9,4,9,9v1.6C21,23,20.7,23.2,20.3,23.2z"/>
</g>
</svg>
