<?xml version="1.0" encoding="utf-8"?>
<!-- Generator: Adobe Illustrator 22.1.0, SVG Export Plug-In . SVG Version: 6.00 Build 0)  -->
<svg version="1.1" id="Capa_1" xmlns="http://www.w3.org/2000/svg" xmlns:xlink="http://www.w3.org/1999/xlink" x="0px" y="0px"
	 viewBox="0 0 24 24" style="enable-background:new 0 0 24 24;" xml:space="preserve">
<style type="text/css">
	.st0{fill:none;stroke:#FF9333;stroke-width:1.3696;stroke-miterlimit:10;}
</style>
<g>
	<line class="st0" x1="0.8" y1="23.2" x2="23.2" y2="23.2"/>
	<line class="st0" x1="5.2" y1="0.8" x2="5.2" y2="21"/>
	<line class="st0" x1="9.8" y1="5.2" x2="9.8" y2="21"/>
	<line class="st0" x1="14.2" y1="3" x2="14.2" y2="21"/>
	<line class="st0" x1="18.8" y1="9.8" x2="18.8" y2="21"/>
</g>
</svg>
