<?xml version="1.0" encoding="utf-8"?>
<!-- Generator: Adobe Illustrator 22.1.0, SVG Export Plug-In . SVG Version: 6.00 Build 0)  -->
<svg version="1.1" id="Capa_1" xmlns="http://www.w3.org/2000/svg" xmlns:xlink="http://www.w3.org/1999/xlink" x="0px" y="0px"
	 viewBox="0 0 24 24" style="enable-background:new 0 0 24 24;" xml:space="preserve">
<style type="text/css">
	.st0{fill:none;stroke:#727070;stroke-width:1.3696;stroke-miterlimit:10;}
</style>
<g>
	<circle class="st0" cx="12" cy="8.7" r="2.7"/>
	<path class="st0" d="M17,19.5H7c-0.2,0-0.4-0.2-0.4-0.4v-1c0-3,2.4-5.4,5.4-5.4l0,0c3,0,5.4,2.4,5.4,5.4v1
		C17.4,19.3,17.2,19.5,17,19.5z"/>
	<circle class="st0" cx="18.9" cy="6.6" r="2.2"/>
	<path class="st0" d="M14.6,13.5c0.4-2.1,2.2-3.5,4.3-3.5l0,0c2.4,0,4.3,2,4.3,4.3V15c0,0.2-0.1,0.3-0.3,0.3h-6.3"/>
	<circle class="st0" cx="5.2" cy="6.6" r="2.2"/>
	<path class="st0" d="M7.3,15.3H1c-0.2,0-0.3-0.1-0.3-0.3v-0.8c0-2.4,2-4.3,4.3-4.3l0,0c2.1,0,3.8,1.5,4.3,3.5"/>
</g>
</svg>
