<?xml version="1.0" encoding="utf-8"?>
<!-- Generator: Adobe Illustrator 22.1.0, SVG Export Plug-In . SVG Version: 6.00 Build 0)  -->
<svg version="1.1" id="Capa_1" xmlns="http://www.w3.org/2000/svg" xmlns:xlink="http://www.w3.org/1999/xlink" x="0px" y="0px"
	 viewBox="0 0 24 24" style="enable-background:new 0 0 24 24;" xml:space="preserve">
<style type="text/css">
	.st0{fill:none;stroke:#5C6BC0;stroke-width:1.3636;stroke-miterlimit:10;}
</style>
<g>
	<circle class="st0" cx="12" cy="12" r="4.5"/>
	<path class="st0" d="M22.5,9.8h-1.9c-0.2-0.8-0.5-1.6-1-2.2l1.4-1.4c0.3-0.3,0.3-0.7,0-1l-2.2-2.2c-0.3-0.3-0.7-0.3-1,0l-1.4,1.4
		c-0.7-0.4-1.5-0.8-2.3-1V1.5c0-0.4-0.3-0.7-0.7-0.7h-3.1c-0.4,0-0.7,0.3-0.7,0.7v1.9C8.9,3.6,8.1,3.9,7.4,4.3L6.1,2.9
		c-0.3-0.3-0.7-0.3-1,0L2.9,5.2c-0.3,0.3-0.3,0.7,0,1l1.4,1.4C3.9,8.2,3.6,9,3.3,9.8H1.5c-0.4,0-0.7,0.3-0.7,0.7v3.1
		c0,0.4,0.3,0.7,0.7,0.7h1.9c0.2,0.8,0.5,1.6,1,2.3l-1.4,1.3c-0.3,0.3-0.3,0.7,0,1l2.2,2.2c0.3,0.3,0.7,0.3,1,0l1.3-1.3
		c0.7,0.4,1.5,0.7,2.2,1v1.9c0,0.4,0.3,0.7,0.7,0.7h3.1c0.4,0,0.7-0.3,0.7-0.7v-1.9c0.8-0.2,1.6-0.5,2.3-1l1.4,1.4
		c0.3,0.3,0.7,0.3,1,0l2.2-2.2c0.3-0.3,0.3-0.7,0-1l-1.4-1.4c0.4-0.7,0.8-1.5,1-2.3h1.9c0.4,0,0.7-0.3,0.7-0.7v-3.1
		C23.2,10.1,22.9,9.8,22.5,9.8z"/>
</g>
</svg>
