<?xml version="1.0" encoding="utf-8"?>
<!-- Generator: Adobe Illustrator 22.1.0, SVG Export Plug-In . SVG Version: 6.00 Build 0)  -->
<svg version="1.1" id="Capa_1" xmlns="http://www.w3.org/2000/svg" xmlns:xlink="http://www.w3.org/1999/xlink" x="0px" y="0px"
	 viewBox="0 0 24 24" style="enable-background:new 0 0 24 24;" xml:space="preserve">
<style type="text/css">
	.st0{fill:none;stroke:#727070;stroke-width:1.3696;stroke-miterlimit:10;}
</style>
<g>
	<path class="st0" d="M22.6,23.2H1.4c-0.4,0-0.7-0.3-0.7-0.7v-18c0-0.4,0.3-0.7,0.7-0.7h21.1c0.4,0,0.7,0.3,0.7,0.7v18
		C23.2,23,23,23.2,22.6,23.2z"/>
	<path class="st0" d="M0.8,8.4h22.5H0.8z"/>
	<polyline class="st0" points="5.2,5.3 5.2,3.9 5.2,0.8 	"/>
	<polyline class="st0" points="18.7,5.3 18.7,3.9 18.7,0.8 	"/>
	<polyline class="st0" points="15.6,12.8 16.5,12.8 17.4,12.8 	"/>
	<polyline class="st0" points="15.6,17.3 16.5,17.3 17.4,17.3 	"/>
	<polyline class="st0" points="11.1,12.8 12,12.8 12.9,12.8 	"/>
	<polyline class="st0" points="11.1,17.3 12,17.3 12.9,17.3 	"/>
	<polyline class="st0" points="6.6,12.8 7.5,12.8 8.4,12.8 	"/>
	<polyline class="st0" points="6.6,17.3 7.5,17.3 8.4,17.3 	"/>
</g>
</svg>
