<?xml version="1.0" encoding="utf-8"?>
<!-- Generator: Adobe Illustrator 22.1.0, SVG Export Plug-In . SVG Version: 6.00 Build 0)  -->
<svg version="1.1" id="Capa_1" xmlns="http://www.w3.org/2000/svg" xmlns:xlink="http://www.w3.org/1999/xlink" x="0px" y="0px"
	 viewBox="0 0 24 24" style="enable-background:new 0 0 24 24;" xml:space="preserve">
<style type="text/css">
	.st0{fill:#5C6BC0;}
	.st1{fill:none;stroke:#FFFFFF;stroke-width:2;stroke-miterlimit:10;}
</style>
<g id="Capa_2_1_">
	<circle class="st0" cx="12" cy="12" r="12"/>
</g>
<g>
	<path class="st1" d="M17.4,7.9H15c-0.2,0-0.4-0.2-0.4-0.4V5.2"/>
	<path class="st1" d="M17.4,7.9l-2.8-2.7H7c-0.2,0-0.4,0.2-0.4,0.4v12.7c0,0.2,0.2,0.4,0.4,0.4h10c0.2,0,0.4-0.2,0.4-0.4V7.9z"/>
	<line class="st1" x1="9" y1="11.8" x2="15" y2="11.8"/>
	<line class="st1" x1="12.4" y1="15.2" x2="15" y2="15.2"/>
</g>
</svg>
