<?xml version="1.0" encoding="utf-8"?>
<!-- Generator: Adobe Illustrator 22.1.0, SVG Export Plug-In . SVG Version: 6.00 Build 0)  -->
<svg version="1.1" id="Capa_1" xmlns="http://www.w3.org/2000/svg" xmlns:xlink="http://www.w3.org/1999/xlink" x="0px" y="0px"
	 viewBox="0 0 24 24" style="enable-background:new 0 0 24 24;" xml:space="preserve">
<style type="text/css">
	.st0{fill:#D8D8D8;}
	.st1{fill:none;stroke:#9C9C9C;stroke-width:0.805;stroke-miterlimit:10;}
	.st2{fill:none;stroke:#9C9C9C;stroke-width:0.8909;stroke-miterlimit:10;}
</style>
<g id="Capa_1_1_">
	<g id="Capa_2_1_">
		<circle class="st0" cx="12" cy="12" r="12"/>
	</g>
</g>
<g id="Capa_3">
	<circle class="st1" cx="12" cy="7.5" r="1.8"/>
	<line class="st1" x1="13.2" y1="16.1" x2="13.8" y2="18.3"/>
	<path class="st1" d="M17.3,15.6c0.8,0,1.4,0.6,1.4,1.4s-0.6,1.4-1.4,1.4H6.8c-0.8,0-1.4-0.6-1.4-1.4s0.6-1.4,1.4-1.4l6.3,0.5
		L17.3,15.6z"/>
	<g>
		<g>
			<g>
				<path class="st1" d="M8.5,15.7l1.2-2.1c0,0,0.1-0.1,0.1-0.1s0.1,0,0.1,0.1v2.2"/>
			</g>
		</g>
	</g>
	<g>
		<g>
			<g>
				<path class="st1" d="M15.6,15.7l-1.2-2.1c0,0-0.1-0.1-0.1-0.1s-0.1,0-0.1,0.1v2.2"/>
			</g>
		</g>
	</g>
	<path class="st2" d="M6,15.9l0.8-1.8c1.1-2.3,3.1-3.7,5.2-3.7l0,0c2.2,0,4.2,1.5,5.3,3.8l0.8,1.7"/>
	<line class="st2" x1="14.2" y1="10.8" x2="9.8" y2="15.1"/>
</g>
</svg>
