<?xml version="1.0" encoding="utf-8"?>
<!-- Generator: Adobe Illustrator 22.1.0, SVG Export Plug-In . SVG Version: 6.00 Build 0)  -->
<svg version="1.1" xmlns="http://www.w3.org/2000/svg" xmlns:xlink="http://www.w3.org/1999/xlink" x="0px" y="0px"
	 viewBox="0 0 24 24" style="enable-background:new 0 0 24 24;" xml:space="preserve">
<style type="text/css">
	.st0{fill:#0A738A;}
	.st1{display:none;}
	.st2{display:inline;}
	.st3{fill:#FFFFFF;}
	.st4{fill:none;stroke:#FFFFFF;stroke-width:0.805;stroke-miterlimit:10;}
</style>
<g id="Capa_1">
	<g id="Capa_1_1_">
		<g id="Capa_2_1_">
			<circle class="st0" cx="12" cy="12" r="12"/>
		</g>
	</g>
	<g id="Capa_2_2_" class="st1">
		<g class="st2">
			<path class="st3" d="M20,10.3L18,9V5.6c0-0.3-0.2-0.5-0.5-0.5h-2.3c-0.3,0-0.5,0.2-0.5,0.5v1.2l-2.5-1.7C12,5,11.8,5,11.7,5.1
				L4,10.3c-0.2,0.1-0.3,0.4-0.1,0.7c0.1,0.1,0.2,0.2,0.4,0.2c0.1,0,0.2,0,0.3-0.1l1.4-1v8.4C6,18.8,6.2,19,6.4,19h11.1
				c0.3,0,0.5-0.2,0.5-0.5v-8.4l1.4,1c0.1,0.1,0.2,0.1,0.3,0.1c0.1,0,0.3-0.1,0.4-0.2C20.2,10.8,20.2,10.5,20,10.3L20,10.3z
				 M13,18.1h-2v-4.6h2V18.1z M17.1,18.1h-3.2V13c0-0.3-0.2-0.5-0.5-0.5h-2.9c-0.3,0-0.5,0.2-0.5,0.5v5.1H6.9V9.5L12,6l5.1,3.5V18.1
				z M17.1,8.4l-1.4-0.9V6.1h1.4V8.4z"/>
		</g>
	</g>
</g>
<g id="Capa_2">
	<path class="st4" d="M11.3,5.3H6.8c-0.3,0-0.6,0.3-0.6,0.6v12.7h5.7V5.9C11.9,5.6,11.6,5.3,11.3,5.3z"/>
	<path class="st4" d="M17.1,11.6h-4.5c-0.3,0-0.6,0.3-0.6,0.6v6.4h5.7v-6.4C17.7,11.9,17.4,11.6,17.1,11.6z"/>
	<rect x="7.6" y="6.9" class="st3" width="1" height="1"/>
	<rect x="9.5" y="6.9" class="st3" width="1" height="1"/>
	<rect x="7.6" y="9" class="st3" width="1" height="1"/>
	<rect x="9.5" y="9" class="st3" width="1" height="1"/>
	<rect x="13.3" y="13.2" class="st3" width="1" height="1"/>
	<rect x="15.2" y="13.2" class="st3" width="1" height="1"/>
	<rect x="13.3" y="15.3" class="st3" width="1" height="1"/>
	<rect x="7.6" y="11.1" class="st3" width="1" height="1"/>
	<rect x="9.5" y="11.1" class="st3" width="1" height="1"/>
	<rect x="7.6" y="13.2" class="st3" width="1" height="1"/>
</g>
</svg>
