<?xml version="1.0" encoding="utf-8"?>
<!-- Generator: Adobe Illustrator 22.1.0, SVG Export Plug-In . SVG Version: 6.00 Build 0)  -->
<svg version="1.1" id="Layer_1" xmlns="http://www.w3.org/2000/svg" xmlns:xlink="http://www.w3.org/1999/xlink" x="0px" y="0px"
	 viewBox="0 0 20 20" style="enable-background:new 0 0 20 20;" xml:space="preserve">
<style type="text/css">
	.st0{fill:none;stroke:#FFFFFF;stroke-width:3;stroke-miterlimit:10;}
</style>
<path class="st0" d="M10,10c0-5.5,0-10,0-10S10,4.5,10,10s0,10,0,10S10,15.5,10,10z"/>
<path class="st0" d="M10,10c5.5,0,10,0,10,0S15.5,10,10,10S0,10,0,10S4.5,10,10,10z"/>
</svg>
