<?xml version="1.0" encoding="utf-8"?>
<!-- Generator: Adobe Illustrator 22.1.0, SVG Export Plug-In . SVG Version: 6.00 Build 0)  -->
<svg version="1.1" id="Layer_1" xmlns="http://www.w3.org/2000/svg" xmlns:xlink="http://www.w3.org/1999/xlink" x="0px" y="0px"
	 viewBox="0 0 256 256" style="enable-background:new 0 0 256 256;" xml:space="preserve">
<style type="text/css">
	.st0{fill:#ADADAD;}
	.st1{fill:#ADADAD;stroke:#ADADAD;stroke-width:6;stroke-miterlimit:10;}
</style>
<g>
	<path class="st0" d="M67.9,100.1c-1.7-2.9-5.4-3.9-8.3-2.2l-1.4,0.8v-1.6c0-3.4-2.7-6.1-6.1-6.1c-3.4,0-6.1,2.7-6.1,6.1v1.6
		l-1.4-0.8c-2.9-1.7-6.6-0.7-8.3,2.2c-1.7,2.9-0.7,6.6,2.2,8.3l1.4,0.8l-1.4,0.8c-2.9,1.7-3.9,5.4-2.2,8.3c1.1,1.9,3.2,3,5.3,3
		c1,0,2.1-0.3,3-0.8l1.4-0.8v1.6c0,3.4,2.7,6.1,6.1,6.1c3.4,0,6.1-2.7,6.1-6.1v-1.6l1.4,0.8c1,0.6,2,0.8,3,0.8c2.1,0,4.1-1.1,5.3-3
		c1.7-2.9,0.7-6.6-2.2-8.3l-1.4-0.8l1.4-0.8C68.6,106.7,69.6,103,67.9,100.1L67.9,100.1z M67.9,100.1"/>
	<path class="st0" d="M116.5,100.1c-1.7-2.9-5.4-3.9-8.3-2.2l-1.4,0.8v-1.6c0-3.4-2.7-6.1-6.1-6.1c-3.4,0-6.1,2.7-6.1,6.1v1.6
		l-1.4-0.8c-2.9-1.7-6.6-0.7-8.3,2.2c-1.7,2.9-0.7,6.6,2.2,8.3l1.4,0.8l-1.4,0.8c-2.9,1.7-3.9,5.4-2.2,8.3c1.1,1.9,3.2,3,5.3,3
		c1,0,2.1-0.3,3-0.8l1.4-0.8v1.6c0,3.4,2.7,6.1,6.1,6.1c3.4,0,6.1-2.7,6.1-6.1v-1.6l1.4,0.8c1,0.6,2,0.8,3,0.8c2.1,0,4.1-1.1,5.3-3
		c1.7-2.9,0.7-6.6-2.2-8.3l-1.4-0.8l1.4-0.8C117.2,106.7,118.2,103,116.5,100.1L116.5,100.1z M116.5,100.1"/>
	<path class="st1" d="M228.4,106.3V78.8c0-13.4-10.9-24.3-24.3-24.3H27.6c-13.4,0-24.3,10.9-24.3,24.3v60.8
		c0,13.4,10.9,24.3,24.3,24.3h91.7c3.1,34,31.8,60.8,66.6,60.8c36.9,0,66.9-30,66.9-66.9C252.8,137.1,243.3,118.6,228.4,106.3
		L228.4,106.3z M27.6,151.8c-6.7,0-12.2-5.5-12.2-12.2V78.8c0-6.7,5.5-12.2,12.2-12.2h176.6c6.7,0,12.2,5.5,12.2,12.2v19.5
		c-9.1-4.7-19.5-7.4-30.4-7.4c-11,0-21.3,2.7-30.4,7.4v-1.3c0-3.4-2.7-6.1-6.1-6.1c-3.4,0-6.1,2.7-6.1,6.1v1.6l-1.4-0.8
		c-2.9-1.7-6.6-0.7-8.3,2.2c-1.7,2.9-0.7,6.6,2.2,8.3l1.4,0.8l-1.4,0.8c-2.5,1.4-3.4,4.3-2.7,6.9c-7.6,9.8-12.6,21.8-13.8,34.9H27.6
		z M185.9,212.6c-30.2,0-54.7-24.5-54.7-54.7c0-30.2,24.5-54.7,54.7-54.7c30.2,0,54.7,24.5,54.7,54.7
		C240.6,188,216.1,212.6,185.9,212.6L185.9,212.6z M185.9,212.6"/>
	<path class="st1" d="M212,135.3l-38.3,38.3l-13.9-13.9c-2.4-2.4-6.2-2.4-8.6,0c-2.4,2.4-2.4,6.2,0,8.6l18.2,18.2
		c1.2,1.2,2.7,1.8,4.3,1.8s3.1-0.6,4.3-1.8l42.6-42.6c2.4-2.4,2.4-6.2,0-8.6C218.2,132.9,214.4,132.9,212,135.3L212,135.3z
		 M212,135.3"/>
</g>
</svg>
