<?xml version="1.0" encoding="utf-8"?>
<!-- Generator: Adobe Illustrator 22.1.0, SVG Export Plug-In . SVG Version: 6.00 Build 0)  -->
<svg version="1.1" id="Layer_1" xmlns="http://www.w3.org/2000/svg" xmlns:xlink="http://www.w3.org/1999/xlink" x="0px" y="0px"
	 viewBox="0 0 256 256" style="enable-background:new 0 0 256 256;" xml:space="preserve">
<style type="text/css">
	.st0{fill:#ADADAD;stroke:#ADADAD;stroke-width:4;stroke-miterlimit:10;}
</style>
<g>
	<path class="st0" d="M252.2,99.6c0-0.4-0.1-0.9-0.2-1.3c-0.4-1.4-1.2-2.7-2.5-3.5l-35.6-24.8V43.5c0-3.5-2.9-6.4-6.4-6.4h-41
		l-34.9-24.2c-2.2-1.5-5.1-1.5-7.3,0L89.3,37.1H48.5c-3.5,0-6.4,2.9-6.4,6.4v26.2L6.3,94.5c-1.8,1.2-2.7,3.2-2.7,5.2
		c0,0,0,0.1,0,0.1l0.2,138.1c0,1.7,0.7,3.3,1.9,4.5c1.2,1.2,2.8,1.9,4.5,1.9h0l235.9-0.3c3.5,0,6.4-2.9,6.4-6.4L252.2,99.6z
		 M213.9,85.6l20.4,14.2l-20.4,14.2V85.6z M128,25.9l16.2,11.3h-32.5L128,25.9z M54.9,49.9h146.2v72.9L152,156.9l-20-15.5
		c0,0-0.1,0-0.1-0.1c-2.2-1.7-5.4-1.7-7.7,0.1L104,157l-49.1-34V49.9z M42.1,85.2v29l-21-14.5L42.1,85.2z M16.3,111.9l77.1,53.3
		l-77,59.7L16.3,111.9z M28.8,231.5l99.3-77l98.9,76.7L28.8,231.5z M162.6,165.1l76.9-53.5l0.2,113.3L162.6,165.1z M162.6,165.1"/>
	<path class="st0" d="M171.1,75.4H84.9c-3.5,0-6.4,2.9-6.4,6.4c0,3.5,2.9,6.4,6.4,6.4h86.3c3.5,0,6.4-2.9,6.4-6.4
		C177.5,78.2,174.7,75.4,171.1,75.4L171.1,75.4z M171.1,75.4"/>
	<path class="st0" d="M171.1,108.5H84.9c-3.5,0-6.4,2.9-6.4,6.4c0,3.5,2.9,6.4,6.4,6.4h86.3c3.5,0,6.4-2.9,6.4-6.4
		C177.5,111.4,174.7,108.5,171.1,108.5L171.1,108.5z M171.1,108.5"/>
</g>
</svg>
