<?xml version="1.0" encoding="utf-8"?>
<!-- Generator: Adobe Illustrator 22.1.0, SVG Export Plug-In . SVG Version: 6.00 Build 0)  -->
<svg version="1.1" id="Layer_1" xmlns="http://www.w3.org/2000/svg" xmlns:xlink="http://www.w3.org/1999/xlink" x="0px" y="0px"
	 viewBox="0 0 24 24" style="enable-background:new 0 0 24 24;" xml:space="preserve">
<style type="text/css">
	.st0{opacity:0.5;}
	.st1{fill:#FFFFFF;}
</style>
<g>
	<g class="st0">
		<g>
			<path d="M17.5,0.7h-3C11.1,0.7,9,2.9,9,6.4V9H6C5.7,9,5.5,9.2,5.5,9.4v3.8c0,0.3,0.2,0.5,0.5,0.5h3v9.5c0,0.3,0.2,0.5,0.5,0.5
				h3.9c0.3,0,0.5-0.2,0.5-0.5v-9.5h3.5c0.3,0,0.5-0.2,0.5-0.5V9.4c0-0.1-0.1-0.2-0.1-0.3C17.7,9,17.6,9,17.5,9H14V6.8
				c0-1.1,0.3-1.6,1.6-1.6h2c0.3,0,0.5-0.2,0.5-0.5V1.2C17.9,0.9,17.7,0.7,17.5,0.7L17.5,0.7z"/>
		</g>
	</g>
	<g>
		<g>
			<path class="st1" d="M17.9,0.3h-3c-3.4,0-5.5,2.2-5.5,5.7v2.6h-3C6.1,8.6,5.9,8.8,5.9,9v3.8c0,0.3,0.2,0.5,0.5,0.5h3v9.5
				c0,0.3,0.2,0.5,0.5,0.5h3.9c0.3,0,0.5-0.2,0.5-0.5v-9.5h3.5c0.3,0,0.5-0.2,0.5-0.5V9c0-0.1-0.1-0.2-0.1-0.3
				c-0.1-0.1-0.2-0.1-0.3-0.1h-3.5V6.4c0-1.1,0.3-1.6,1.6-1.6h2c0.3,0,0.5-0.2,0.5-0.5V0.8C18.3,0.5,18.1,0.3,17.9,0.3L17.9,0.3z"/>
		</g>
	</g>
</g>
</svg>
