<?xml version="1.0" encoding="utf-8"?>
<!-- Generator: Adobe Illustrator 22.1.0, SVG Export Plug-In . SVG Version: 6.00 Build 0)  -->
<svg version="1.1" id="Layer_1" xmlns="http://www.w3.org/2000/svg" xmlns:xlink="http://www.w3.org/1999/xlink" x="0px" y="0px"
	 viewBox="0 0 7 14.1" style="enable-background:new 0 0 7 14.1;" xml:space="preserve">
<style type="text/css">
	.st0{fill:#FFFFFF;fill-opacity:0.6;}
</style>
<g transform="translate(7.0710678118654755, 7.0710678118654755) rotate(135.00004827116254) translate(-7.0710678118654755, -7.0710678118654755)">
	<g>
		<path id="path-0" class="st0" d="M12.1,2.2l0,9.9l-9.9,0L12.1,2.2z"/>
	</g>
</g>
</svg>
