<?xml version="1.0" encoding="utf-8"?>
<!-- Generator: Adobe Illustrator 22.1.0, SVG Export Plug-In . SVG Version: 6.00 Build 0)  -->
<svg version="1.1" id="Layer_1" xmlns="http://www.w3.org/2000/svg" xmlns:xlink="http://www.w3.org/1999/xlink" x="0px" y="0px"
	 viewBox="0 0 20 20" style="enable-background:new 0 0 20 20;" xml:space="preserve">
<style type="text/css">
	.st0{fill:none;stroke:#5C6BC0;stroke-width:3;stroke-linecap:round;stroke-linejoin:round;stroke-miterlimit:10;}
</style>
<g>
	<path class="st0" d="M10,10c4.6-4.7,8.3-8.5,8.3-8.5S14.6,5.3,10,10s-8.3,8.5-8.3,8.5S5.4,14.7,10,10z"/>
</g>
<g>
	<path class="st0" d="M10,10C5.3,5.4,1.5,1.7,1.5,1.7S5.3,5.4,10,10s8.5,8.3,8.5,8.3S14.7,14.6,10,10z"/>
</g>
</svg>
