<?xml version="1.0" encoding="utf-8"?>
<!-- Generator: Adobe Illustrator 22.1.0, SVG Export Plug-In . SVG Version: 6.00 Build 0)  -->
<svg version="1.1" id="Capa_1" xmlns="http://www.w3.org/2000/svg" xmlns:xlink="http://www.w3.org/1999/xlink" x="0px" y="0px"
	 viewBox="0 0 24 24" style="enable-background:new 0 0 24 24;" xml:space="preserve">
<style type="text/css">
	.st0{fill:#6CB7C1;}
	.st1{fill:none;stroke:#FFFFFF;stroke-width:2;stroke-miterlimit:10;}
	.st2{fill:#FFFFFF;}
</style>
<g id="Capa_2_1_">
	<circle class="st0" cx="12" cy="12" r="12"/>
</g>
<g id="Capa_1_1_">
	<g>
		<circle class="st1" cx="12" cy="12" r="7"/>
		<circle class="st2" cx="9.7" cy="10.4" r="1.1"/>
		<circle class="st2" cx="14.5" cy="10.4" r="1.1"/>
	</g>
</g>
<line class="st1" x1="8.7" y1="13.8" x2="15.3" y2="13.8"/>
</svg>
