<?xml version="1.0" encoding="utf-8"?>
<!-- Generator: Adobe Illustrator 22.1.0, SVG Export Plug-In . SVG Version: 6.00 Build 0)  -->
<svg version="1.1" id="Capa_1" xmlns="http://www.w3.org/2000/svg" xmlns:xlink="http://www.w3.org/1999/xlink" x="0px" y="0px"
	 viewBox="0 0 24 24" style="enable-background:new 0 0 24 24;" xml:space="preserve">
<style type="text/css">
	.st0{fill:#FFFFFF;}
	.st1{fill:none;stroke:#353535;stroke-width:0.805;stroke-miterlimit:10;}
	.st2{fill:#353535;}
</style>
<g id="Capa_2_1_">
	<circle class="st0" cx="12" cy="12" r="12"/>
</g>
<g id="Capa_1_1_">
	<g>
		<circle class="st1" cx="12" cy="12" r="7"/>
		<circle class="st2" cx="9.7" cy="10.4" r="0.8"/>
		<circle class="st2" cx="14.5" cy="10.4" r="0.8"/>
		<path class="st1" d="M8.7,15.4c0.6-1.1,1.9-1.8,3.3-1.8c1.5,0,2.7,0.7,3.3,1.8"/>
	</g>
</g>
</svg>
