<?xml version="1.0" encoding="utf-8"?>
<!-- Generator: Adobe Illustrator 22.1.0, SVG Export Plug-In . SVG Version: 6.00 Build 0)  -->
<svg version="1.1" id="Capa_1" xmlns="http://www.w3.org/2000/svg" xmlns:xlink="http://www.w3.org/1999/xlink" x="0px" y="0px"
	 viewBox="0 0 24 24" style="enable-background:new 0 0 24 24;" xml:space="preserve">
<style type="text/css">
	.st0{fill:#6791A7;}
	.st1{fill:none;stroke:#FFFFFF;stroke-width:1.7998;stroke-miterlimit:10;}
	.st2{fill:none;stroke:#FFFFFF;stroke-width:1.3;stroke-miterlimit:10;}
</style>
<g id="Capa_2_1_">
	<circle class="st0" cx="12" cy="12" r="12"/>
</g>
<g id="Capa_1_1_">
	<g>
		<circle class="st1" cx="12" cy="12" r="7"/>
	</g>
</g>
<g id="Capa_3">
	<path class="st0" d="M15.6,7.6c-0.2,0.3-0.3,0.7-0.1,1.1c0.3,0.6,0.9,1.1,1.6,1.1s1.3-0.4,1.5-0.9c0.2-0.4,0.2-0.9-0.1-1.2L17,5.6
		L15.6,7.6z"/>
	<g>
		<path class="st2" d="M8.2,10.8c0-0.7,0.6-1.3,1.3-1.3s1.3,0.6,1.3,1.3"/>
		<path class="st2" d="M13.3,10.8c0-0.7,0.6-1.3,1.3-1.3s1.3,0.6,1.3,1.3"/>
		<path class="st2" d="M15.6,12.7H8.4c0,2,1.6,3.6,3.6,3.6S15.6,14.7,15.6,12.7z"/>
		<path class="st2" d="M15.6,7.6c-0.2,0.3-0.3,0.7-0.1,1.1c0.3,0.6,0.9,1.1,1.6,1.1s1.3-0.4,1.5-0.9c0.2-0.4,0.2-0.9-0.1-1.2L17,5.6
			L15.6,7.6z"/>
	</g>
</g>
</svg>
