<?xml version="1.0" encoding="utf-8"?>
<!-- Generator: Adobe Illustrator 22.1.0, SVG Export Plug-In . SVG Version: 6.00 Build 0)  -->
<svg version="1.1" id="Layer_1" xmlns="http://www.w3.org/2000/svg" xmlns:xlink="http://www.w3.org/1999/xlink" x="0px" y="0px"
	 viewBox="0 0 24 24" style="enable-background:new 0 0 24 24;" xml:space="preserve">
<style type="text/css">
	.st0{fill:#7F7F7F;}
	.st1{fill:#5C6BC0;}
	.st2{fill:#FFFFFF;}
</style>
<g>
	<path class="st0" d="M14,10.5L9.8,7.8c-0.1-0.1-0.3-0.1-0.4,0C9.3,7.9,9.2,8,9.2,8.1v5.4c0,0.1,0.1,0.3,0.2,0.3c0.1,0,0.1,0,0.2,0
		c0.1,0,0.1,0,0.2-0.1L14,11c0.1-0.1,0.2-0.2,0.2-0.3C14.2,10.7,14.1,10.6,14,10.5L14,10.5z M10,12.8v-4l3.1,2L10,12.8z"/>
	<path class="st0" d="M21.8,2H0.4C0.2,2,0,2.2,0,2.4v16.9c0,0.2,0.2,0.4,0.4,0.4h21.5c0.2,0,0.4-0.2,0.4-0.4V2.4
		C22.2,2.2,22.1,2,21.8,2L21.8,2z M3.8,10.4h-3V7h3.1L3.8,10.4L3.8,10.4z M0.8,11.2h3.1v3.4H0.8V11.2z M4.6,15V2.8h13v16.1h-13
		C4.6,18.9,4.6,15,4.6,15z M21.5,10.4h-3.1V7h3.1V10.4z M18.4,11.2h3.1v3.4h-3.1V11.2z M21.5,2.8v3.5h-3.1V2.8H21.5z M0.8,2.8h3.1
		v3.5H0.8V2.8z M0.8,18.9v-3.4h3.1v3.4H0.8z M21.5,18.9h-3.1v-3.4h3.1V18.9z"/>
</g>
<g>
	<circle class="st1" cx="20.5" cy="20" r="3.5"/>
	<rect x="20.1" y="18" class="st2" width="0.8" height="4"/>
	<rect x="18.5" y="19.6" class="st2" width="4" height="0.8"/>
</g>
</svg>
