<?xml version="1.0" encoding="utf-8"?>
<!-- Generator: Adobe Illustrator 22.1.0, SVG Export Plug-In . SVG Version: 6.00 Build 0)  -->
<svg version="1.1" id="Layer_1" xmlns="http://www.w3.org/2000/svg" xmlns:xlink="http://www.w3.org/1999/xlink" x="0px" y="0px"
	 viewBox="0 0 24 24" style="enable-background:new 0 0 24 24;" xml:space="preserve">
<style type="text/css">
	.st0{fill:#7F7F7F;}
	.st1{fill:#FF9333;}
	.st2{fill:#FFFFFF;}
</style>
<g>
	<g>
		<path class="st0" d="M20.7,1.1C20.6,1,20.5,1,20.4,1L8.1,2.6C7.9,2.6,7.7,2.8,7.7,3v14.1c-0.7-0.9-1.9-1.4-3.2-1.4
			c-2.2,0-4,1.6-4,3.6s1.8,3.6,4,3.6s4-1.6,4-3.6c0-0.1,0-0.2,0-0.3c0,0,0,0,0-0.1V7.4L20,5.9v7.2c-0.7-0.9-1.9-1.4-3.2-1.4
			c-2.2,0-4,1.6-4,3.6s1.8,3.6,4,3.6s3.9-1.6,4-3.5l0,0v-14C20.8,1.3,20.8,1.2,20.7,1.1L20.7,1.1z M4.6,22c-1.8,0-3.2-1.2-3.2-2.8
			c0-1.5,1.4-2.8,3.2-2.8s3.2,1.2,3.2,2.8C7.7,20.8,6.3,22,4.6,22L4.6,22z M16.9,18.1c-1.8,0-3.2-1.2-3.2-2.8c0-1.5,1.4-2.8,3.2-2.8
			s3.2,1.2,3.2,2.8C20.1,16.8,18.6,18.1,16.9,18.1L16.9,18.1z M8.5,6.6V3.3L20,1.8v3.3L8.5,6.6z"/>
	</g>
</g>
<g>
	<circle class="st1" cx="20.5" cy="20" r="3.5"/>
	<rect x="20.1" y="18" class="st2" width="0.8" height="4"/>
	<rect x="18.5" y="19.6" class="st2" width="4" height="0.8"/>
</g>
</svg>
