<?xml version="1.0" encoding="utf-8"?>
<!-- Generator: Adobe Illustrator 22.1.0, SVG Export Plug-In . SVG Version: 6.00 Build 0)  -->
<svg version="1.1" id="Layer_1" xmlns="http://www.w3.org/2000/svg" xmlns:xlink="http://www.w3.org/1999/xlink" x="0px" y="0px"
	 viewBox="0 0 24 24" style="enable-background:new 0 0 24 24;" xml:space="preserve">
<style type="text/css">
	.st0{fill:#7F7F7F;}
	.st1{fill:#FF9333;}
	.st2{fill:#FFFFFF;}
</style>
<g>
	<path class="st0" d="M19.3,5.2L19,4.9L15.1,1l-0.3-0.3c-0.1-0.1-0.3-0.2-0.5-0.2H3.1c-0.5,0-0.9,0.4-0.9,1.1V22
		c0,0.3,0.3,0.6,0.7,0.7c0,0,0,0,0.1,0s0.1,0,0.2,0h15.4c0.1,0,0.1,0,0.2,0c0,0,0,0,0.1,0c0.4-0.1,0.7-0.4,0.7-0.7V5.9
		C19.5,5.6,19.4,5.4,19.3,5.2L19.3,5.2z M18.1,5.1h-3.2V1.9L18.1,5.1z M3.1,22L3.1,22c-0.1,0-0.2-0.1-0.2-0.2v-5.6h15.7v5.6
		c0,0.1,0,0.1-0.1,0.2c0,0,0,0-0.1,0H3.1z M2.9,15.5V1.6c0-0.1,0-0.4,0.2-0.4h11v0.1v4.5h4.5c0.1,0,0.1,0,0.1,0l0,0v9.6L2.9,15.5
		L2.9,15.5z"/>
	<path class="st0" d="M8.1,17.7c-0.1-0.1-0.3-0.2-0.4-0.2c-0.2-0.1-0.3-0.1-0.5-0.1H6.1v3.9h0.6v-1.4h0.5c0.2,0,0.4,0,0.6-0.1
		s0.3-0.1,0.4-0.3c0.1-0.1,0.2-0.2,0.3-0.4c0.1-0.2,0.1-0.3,0.1-0.5s0-0.4-0.1-0.5C8.4,17.9,8.3,17.8,8.1,17.7L8.1,17.7z M7.9,19
		c0,0.1-0.1,0.2-0.2,0.2c-0.1,0.1-0.1,0.1-0.2,0.1s-0.2,0-0.2,0H6.7v-1.5h0.5c0.2,0,0.3,0,0.4,0.1C7.7,18,7.8,18,7.8,18.1
		c0.1,0.1,0.1,0.2,0.1,0.2c0,0.1,0,0.2,0,0.2C8,18.7,7.9,18.9,7.9,19L7.9,19z"/>
	<path class="st0" d="M12,17.9c-0.2-0.2-0.4-0.3-0.6-0.4c-0.2-0.1-0.5-0.2-0.9-0.2H9.3v3.9h1.5c0,0,0.1,0,0.2,0c0.1,0,0.2,0,0.3-0.1
		c0.1,0,0.2-0.1,0.4-0.2c0.1-0.1,0.2-0.2,0.4-0.4c0.1-0.2,0.2-0.3,0.3-0.6c0.1-0.2,0.1-0.5,0.1-0.8c0-0.2,0-0.5-0.1-0.7
		C12.2,18.3,12.1,18.1,12,17.9L12,17.9z M11.5,20.4c-0.2,0.3-0.5,0.4-0.9,0.4H9.9v-2.9h0.4c0.3,0,0.5,0,0.7,0.1s0.3,0.2,0.4,0.3
		c0.1,0.1,0.2,0.3,0.2,0.4c0,0.2,0.1,0.3,0.1,0.5C11.8,19.7,11.7,20.1,11.5,20.4L11.5,20.4z"/>
	<path class="st0" d="M13.4,21.2H14v-1.7h1.6v-0.4H14v-1.2h1.8v-0.5h-2.4V21.2z"/>
	<path class="st0" d="M14.4,9.3c-0.4,0-0.8,0-1.3,0.1c-0.7-0.7-1.4-1.8-2-2.9c0.5-2.2,0.3-2.5,0.1-2.6c-0.1-0.2-0.3-0.4-0.5-0.4
		c-0.1,0-0.3,0-0.4,0.1C10.1,3.7,10,3.8,9.9,4.1C9.6,4.7,10,5.8,10.4,6.7C10.1,8,9.5,9.6,8.9,10.8c-1.5,0.7-2.2,1.3-2.3,1.9
		c0,0.2,0,0.6,0.4,0.9c0.1,0.1,0.2,0.1,0.4,0.1c0.3,0,0.7-0.3,1.1-0.8c0.3-0.4,0.6-1,0.9-1.6c1-0.4,2.3-0.9,3.4-1.1
		c0.6,0.6,1.1,0.9,1.6,0.9c0.3,0,0.6-0.2,0.9-0.5c0.2-0.3,0.3-0.6,0.1-0.8C15.4,9.5,15,9.3,14.4,9.3L14.4,9.3z M7.6,13
		c-0.2-0.1-0.2-0.2-0.2-0.3c0-0.2,0.4-0.6,1.2-1.1C8,12.9,7.6,13,7.6,13L7.6,13z M10.7,4.2c0,0,0.4,0.4,0,1.2
		C10.2,4.9,10.7,4.2,10.7,4.2L10.7,4.2z M9.9,10.4c0.4-0.9,0.8-2,1-2.9c0.4,0.8,1,1.5,1.5,2.1C11.6,9.8,10.7,10.1,9.9,10.4L9.9,10.4
		z M14.9,10.2c-0.1,0.2-0.4,0.2-0.5,0.2c-0.2,0-0.3-0.1-0.6-0.4c0.3,0,0.5,0,0.7,0C14.8,10,14.9,10.1,14.9,10.2
		C15,10.1,14.9,10.1,14.9,10.2L14.9,10.2z"/>
</g>
<circle class="st1" cx="19.4" cy="20" r="3.5"/>
<rect x="19" y="18" class="st2" width="0.8" height="4"/>
<rect x="17.4" y="19.7" class="st2" width="4" height="0.8"/>
</svg>
