<?xml version="1.0" encoding="utf-8"?>
<!-- Generator: Adobe Illustrator 22.1.0, SVG Export Plug-In . SVG Version: 6.00 Build 0)  -->
<svg version="1.1" id="Capa_1" xmlns="http://www.w3.org/2000/svg" xmlns:xlink="http://www.w3.org/1999/xlink" x="0px" y="0px"
	 viewBox="0 0 24 24" style="enable-background:new 0 0 24 24;" xml:space="preserve">
<style type="text/css">
	.st0{fill:#B8B8B8;}
</style>
<g>
	<g>
		<path id="path-0" class="st0" d="M20,3.9c-0.6-0.6-1.6-0.6-2.3,0c-0.6,0.6-0.6,1.6,0,2.3c0.6,0.6,1.6,0.6,2.3,0S20.5,4.4,20,3.9
			L20,3.9z M21.8,7.3c-0.3-0.3-0.7-0.4-1.2-0.2c-0.2,0.1-0.5,0.3-0.6,0.6S20,8.2,20,8.4c0.1,0.1,0.1,0.2,0.2,0.4
			c0.3,0.3,0.7,0.4,1.2,0.2c0.6-0.2,0.9-0.9,0.6-1.4C21.9,7.6,21.9,7.4,21.8,7.3L21.8,7.3z M16.5,2c-0.1-0.1-0.2-0.2-0.4-0.2
			c-0.2-0.1-0.6-0.1-0.8,0c-0.2,0.1-0.5,0.3-0.6,0.6c-0.2,0.5-0.2,1,0.2,1.3c0.1,0.1,0.2,0.2,0.4,0.2c0.2,0.1,0.6,0.1,0.8,0
			c0.2-0.1,0.5-0.3,0.6-0.6C16.9,2.9,16.8,2.3,16.5,2L16.5,2z M22.9,10.8c-0.2-0.2-0.6-0.5-1.1-0.5c-0.8,0-1.5,0.7-1.5,1.5
			c0,0.5,0.2,0.8,0.5,1.1c0.2,0.2,0.6,0.5,1.1,0.5c0.8,0,1.5-0.7,1.5-1.5C23.3,11.4,23.1,11,22.9,10.8L22.9,10.8z M13,1
			c-0.2-0.2-0.6-0.5-1.1-0.5c-0.7,0.1-1.4,0.8-1.4,1.6c0,0.5,0.2,0.8,0.5,1.1c0.2,0.2,0.6,0.5,1.1,0.5c0.8,0,1.5-0.7,1.5-1.5
			C13.5,1.6,13.4,1.3,13,1L13,1z M21.7,14.8c-0.1-0.1-0.2-0.2-0.4-0.2c-0.6-0.2-1.2,0.1-1.4,0.6l0,0c-0.2,0.5-0.1,0.9,0.2,1.2
			c0.1,0.1,0.2,0.2,0.4,0.2c0.2,0.1,0.6,0.1,0.8,0c0.2-0.1,0.5-0.3,0.6-0.6C22.2,15.6,22.1,15.1,21.7,14.8L21.7,14.8z M9,2.1
			C8.7,1.8,8.3,1.7,7.8,1.9C7.6,1.9,7.3,2.2,7.3,2.4C7.2,2.7,7.2,3,7.3,3.2c0.1,0.1,0.1,0.2,0.2,0.4C7.8,3.9,8.2,4,8.7,3.9
			c0.2-0.1,0.5-0.3,0.6-0.6c0.1-0.2,0.1-0.6,0-0.8C9.2,2.3,9.1,2.2,9,2.1L9,2.1z M6.1,3.9c-0.6-0.6-1.6-0.6-2.3,0
			c-0.6,0.6-0.6,1.6,0,2.3s1.6,0.6,2.3,0S6.8,4.5,6.1,3.9L6.1,3.9z M20,17.7c-0.6-0.6-1.6-0.6-2.3,0c-0.6,0.6-0.6,1.6,0,2.3
			c0.6,0.6,1.6,0.6,2.3,0C20.5,19.2,20.5,18.3,20,17.7L20,17.7z M16.5,20c-0.3-0.3-0.7-0.4-1.2-0.2c-0.6,0.2-0.9,0.9-0.6,1.4
			c0.1,0.1,0.1,0.2,0.2,0.4c0.3,0.3,0.7,0.4,1.2,0.2c0.6-0.2,0.9-0.9,0.6-1.4C16.7,20.4,16.7,20.2,16.5,20L16.5,20z M3.7,7.4
			C3.6,7.3,3.5,7.2,3.3,7.2C2.7,6.9,2.1,7.2,1.9,7.7l0,0C1.8,8.2,1.9,8.6,2.2,8.9C2.3,9,2.4,9.2,2.6,9.2C3.2,9.4,3.8,9.1,4,8.5
			C4.1,8.1,4,7.7,3.7,7.4L3.7,7.4z M13.1,20.5C12.9,20.3,12.5,20,12,20c-0.8,0-1.5,0.7-1.5,1.5c0,0.5,0.2,0.8,0.5,1.1
			c0.2,0.2,0.6,0.5,1.1,0.5c0.8,0,1.5-0.7,1.5-1.5C13.5,21.2,13.4,20.8,13.1,20.5L13.1,20.5z M3.3,10.7c-0.2-0.2-0.6-0.5-1.1-0.5
			c-0.8,0-1.5,0.7-1.5,1.5c0,0.5,0.2,0.8,0.5,1.1c0.2,0.2,0.6,0.5,1.1,0.5c0.8,0,1.5-0.7,1.5-1.5C3.7,11.4,3.6,11,3.3,10.7L3.3,10.7
			z M9,20.1c-0.1-0.1-0.2-0.2-0.4-0.2c-0.6-0.2-1.2,0.1-1.4,0.6C7,21,7.1,21.4,7.4,21.7C7.5,21.8,7.7,22,7.8,22
			C8.1,22,8.4,22,8.6,22c0.2-0.1,0.5-0.3,0.6-0.6C9.4,20.8,9.3,20.4,9,20.1L9,20.1z M3.7,14.8c-0.3-0.3-0.7-0.4-1.2-0.2
			c-0.2,0.1-0.5,0.3-0.6,0.6c-0.1,0.2-0.1,0.6,0,0.8c0.1,0.2,0.2,0.3,0.2,0.4c0.3,0.3,0.7,0.4,1.2,0.2C3.6,16.5,3.9,16.3,4,16
			C4,15.8,4,15.4,4,15.2C4,15,3.9,15,3.7,14.8L3.7,14.8z M6.2,17.6c-0.6-0.6-1.6-0.6-2.3,0c-0.6,0.6-0.6,1.6,0,2.3
			c0.6,0.6,1.6,0.6,2.3,0C6.8,19.3,6.8,18.2,6.2,17.6L6.2,17.6z M2.5,21.3c-0.3-0.3-0.7-0.4-1.2-0.2c-0.2,0.1-0.5,0.3-0.6,0.6
			c-0.1,0.2-0.1,0.6,0,0.8c0.1,0.1,0.1,0.2,0.2,0.4c0.3,0.3,0.7,0.4,1.2,0.2c0.2-0.1,0.5-0.3,0.6-0.6c0.1-0.2,0.1-0.6,0-0.8
			C2.7,21.6,2.6,21.4,2.5,21.3L2.5,21.3z"/>
	</g>
	<g>
		<path class="st0" d="M2.2,10.1c-0.5,0-1,0.2-1.3,0.5c-0.3,0.3-0.5,0.8-0.5,1.3c0,0.5,0.2,1,0.5,1.3s0.8,0.5,1.3,0.5
			c1,0,1.8-0.8,1.8-1.8C4,10.9,3.2,10.1,2.2,10.1z"/>
		<path class="st0" d="M11.9,0.3c-0.5,0-0.9,0.2-1.2,0.6c-0.3,0.3-0.5,0.8-0.5,1.3s0.2,1,0.5,1.3s0.8,0.5,1.3,0.5
			c0.5,0,1-0.2,1.3-0.5c0.2-0.4,0.4-0.9,0.4-1.4C13.8,1.2,12.9,0.3,11.9,0.3z"/>
		<path class="st0" d="M4.2,8.7C4.5,8,4.2,7.2,3.5,7C2.8,6.7,2,7,1.8,7.7c-0.2,0.5-0.1,1,0.3,1.4c0.2,0.2,0.2,0.2,0.4,0.2
			C3.2,9.6,3.9,9.3,4.2,8.7z"/>
		<path class="st0" d="M14.7,3.8C14.9,3.9,15,4,15.1,4c0.3,0.2,0.6,0.2,1,0c0.3-0.2,0.6-0.4,0.7-0.7c0.4-0.6,0.1-1.4-0.6-1.7
			c-0.4-0.1-0.7-0.1-1.1,0c-0.3,0.2-0.6,0.4-0.7,0.7C14.3,2.8,14.3,3.4,14.7,3.8z"/>
		<path class="st0" d="M4.2,15.1c-0.3-0.6-1.1-1-1.7-0.7c-0.3,0.2-0.6,0.4-0.7,0.7c-0.2,0.3-0.2,0.6,0,1c0,0.2,0.2,0.3,0.2,0.4
			c0.4,0.4,1,0.5,1.4,0.3c0.3-0.2,0.6-0.4,0.7-0.7C4.4,15.8,4.4,15.4,4.2,15.1z"/>
		<path class="st0" d="M6.4,6.2c0.7-0.7,0.7-1.9,0-2.6s-1.9-0.7-2.6,0s-0.7,1.9,0,2.6C4.5,6.9,5.6,6.9,6.4,6.2z"/>
		<path class="st0" d="M19.8,15.1c-0.2,0.4-0.1,1,0.2,1.4c0.2,0.2,0.2,0.2,0.4,0.2c0.3,0.2,0.6,0.2,1,0c0.3-0.2,0.6-0.4,0.7-0.7
			c0.3-0.6,0-1.4-0.7-1.7C20.8,14.1,20,14.4,19.8,15.1z"/>
		<path class="st0" d="M7,3.3c0.1,0.2,0.2,0.3,0.3,0.5c0.4,0.4,1,0.5,1.4,0.3c0.3-0.2,0.6-0.4,0.7-0.7c0.1-0.4,0.1-0.7-0.1-1
			c-0.2-0.6-1-1-1.7-0.7C7.4,1.8,7.2,2,7,2.3C6.9,2.7,6.9,3.1,7,3.3z"/>
		<path class="st0" d="M12,19.9c-1,0-1.8,0.8-1.8,1.8c0,0.5,0.2,1,0.5,1.3c0.3,0.3,0.8,0.5,1.3,0.5c1,0,1.8-0.8,1.8-1.8
			C13.8,20.7,12.9,19.8,12,19.9z"/>
		<path class="st0" d="M20.5,13.1c0.3,0.3,0.8,0.5,1.3,0.5c0.5,0,1-0.2,1.3-0.5c0.3-0.3,0.5-0.8,0.5-1.3c0-1-0.8-1.8-1.8-1.8
			c-0.5,0-1,0.2-1.3,0.5c-0.3,0.3-0.5,0.8-0.5,1.3C20,12.4,20.1,12.7,20.5,13.1z"/>
		<path class="st0" d="M17,20.4c-0.3-0.6-1.1-1-1.7-0.7c-0.3,0.2-0.6,0.4-0.7,0.7c-0.2,0.3-0.2,0.6,0,1c0,0.2,0.2,0.3,0.2,0.4
			c0.4,0.4,1,0.5,1.4,0.3C16.9,21.9,17.2,21.1,17,20.4z"/>
		<path class="st0" d="M20.1,17.5c-0.7-0.7-1.9-0.7-2.6,0c-0.7,0.7-0.7,1.9,0,2.6c0.3,0.3,0.8,0.5,1.3,0.5c0.5,0,1-0.2,1.3-0.5
			C20.8,19.3,20.8,18.2,20.1,17.5z"/>
		<path class="st0" d="M8.8,19.7c-0.3-0.2-0.6-0.2-1,0c-0.3,0.2-0.6,0.4-0.7,0.7c-0.2,0.5-0.1,1,0.3,1.4c0.2,0.2,0.2,0.2,0.4,0.2
			c0.3,0.2,0.6,0.2,1,0c0.3-0.2,0.6-0.4,0.7-0.7C9.7,20.7,9.4,19.9,8.8,19.7z"/>
		<path class="st0" d="M19.7,8.6c0,0.2,0.2,0.3,0.2,0.4c0.4,0.4,1,0.5,1.4,0.3c0.6-0.3,1-1,0.7-1.7s-1.1-1-1.7-0.7
			c-0.3,0.2-0.6,0.4-0.7,0.7C19.6,7.9,19.6,8.3,19.7,8.6z"/>
		<path class="st0" d="M6.4,17.5c-0.7-0.7-1.9-0.7-2.6,0s-0.7,1.9,0,2.6c0.7,0.7,1.9,0.7,2.6,0S7.1,18.2,6.4,17.5z"/>
		<path class="st0" d="M20.1,3.7c-0.3-0.3-0.8-0.5-1.3-0.5c-0.5,0-1,0.2-1.3,0.5c-0.7,0.7-0.7,1.9,0,2.6s1.9,0.7,2.6,0
			S20.8,4.4,20.1,3.7z"/>
	</g>
</g>
</svg>
