<?xml version="1.0" encoding="utf-8"?>
<!-- Generator: Adobe Illustrator 22.1.0, SVG Export Plug-In . SVG Version: 6.00 Build 0)  -->
<svg version="1.1" id="Capa_1" xmlns="http://www.w3.org/2000/svg" xmlns:xlink="http://www.w3.org/1999/xlink" x="0px" y="0px"
	 viewBox="0 0 24 24" style="enable-background:new 0 0 24 24;" xml:space="preserve">
<style type="text/css">
	.st0{fill:none;}
	.st1{enable-background:new    ;}
	.st2{fill:#FF9333;stroke:#FF9333;stroke-width:0.3913;stroke-miterlimit:10;}
	.st3{fill:none;stroke:#FF9333;stroke-width:1.3696;stroke-miterlimit:10;}
</style>
<g>
	<rect x="0.8" y="6" class="st0" width="22.5" height="11.8"/>
	<g class="st1">
		<path class="st2" d="M11.3,14.7c0-0.6,0.1-1.1,0.3-1.5s0.5-0.8,1-1.3c0.5-0.5,0.9-0.9,1-1.1c0.1-0.2,0.3-0.4,0.3-0.7
			c0-0.3,0.1-0.5,0.1-0.8c0-0.7-0.2-1.2-0.5-1.5c-0.3-0.4-0.8-0.6-1.5-0.6c-0.6,0-1.1,0.2-1.5,0.5C10.1,8.2,10,8.7,9.9,9.4H9.1
			c0-0.9,0.3-1.5,0.9-2.1c0.6-0.5,1.3-0.8,2.2-0.8c0.9,0,1.6,0.3,2.1,0.8c0.5,0.5,0.8,1.2,0.8,2.1c0,0.6-0.1,1.1-0.4,1.6
			c-0.3,0.5-0.7,1.1-1.5,1.7c-0.6,0.5-0.9,1.2-0.9,2.2H11.3z M11.2,17.4c0-0.2,0.1-0.3,0.2-0.5c0.1-0.2,0.3-0.2,0.5-0.2
			s0.4,0.1,0.5,0.2c0.1,0.1,0.2,0.3,0.2,0.5c0,0.2-0.1,0.3-0.2,0.4c-0.1,0.1-0.3,0.2-0.5,0.2s-0.4-0.1-0.5-0.2
			C11.2,17.7,11.2,17.5,11.2,17.4z"/>
	</g>
	<path class="st3" d="M3,18.8c-1.4-1.9-2.2-4.2-2.2-6.8c0-6.3,5-11.2,11.2-11.2s11.2,5,11.2,11.2s-5,11.2-11.2,11.2
		C8.3,23.2,5.1,21.5,3,18.8"/>
</g>
</svg>
