<?xml version="1.0" encoding="utf-8"?>
<!-- Generator: Adobe Illustrator 22.1.0, SVG Export Plug-In . SVG Version: 6.00 Build 0)  -->
<svg version="1.1" id="Capa_1" xmlns="http://www.w3.org/2000/svg" xmlns:xlink="http://www.w3.org/1999/xlink" x="0px" y="0px"
	 viewBox="0 0 24 24" style="enable-background:new 0 0 24 24;" xml:space="preserve">
<style type="text/css">
	.st0{fill:none;stroke:#FF9333;stroke-width:1.3559;}
</style>
<g>
	<g>
		<g>
			<path id="path-0" class="st0" d="M5.8,0.8h12.4c0.5,0,0.9,0.4,0.9,0.9v16c0,0.5-0.4,0.9-0.9,0.9H5.8c-0.5,0-0.9-0.4-0.9-0.9v-16
				C4.9,1.2,5.3,0.8,5.8,0.8z"/>
		</g>
	</g>
	<g>
		<g>
			<path id="path-2" class="st0" d="M13.7,18.7h3.6v3.6l-1.7-1.8l-1.7,1.8L13.7,18.7L13.7,18.7z"/>
		</g>
	</g>
	<line class="st0" x1="8.5" y1="0.8" x2="8.5" y2="18.5"/>
</g>
</svg>
