<?xml version="1.0" encoding="utf-8"?>
<!-- Generator: Adobe Illustrator 22.1.0, SVG Export Plug-In . SVG Version: 6.00 Build 0)  -->
<svg version="1.1" id="Capa_1" xmlns="http://www.w3.org/2000/svg" xmlns:xlink="http://www.w3.org/1999/xlink" x="0px" y="0px"
	 viewBox="0 0 24 24" style="enable-background:new 0 0 24 24;" xml:space="preserve">
<style type="text/css">
	.st0{fill:#FFFFFF;}
	.st1{fill:none;stroke:#353535;stroke-width:0.7156;stroke-miterlimit:10;}
</style>
<g id="Capa_2_1_">
	<circle class="st0" cx="12" cy="12" r="11.5"/>
</g>
<g>
	<path class="st1" d="M16.8,8.3h-2.1c-0.2,0-0.4-0.2-0.4-0.4v-2"/>
	<path class="st1" d="M16.8,8.3l-2.5-2.4H7.6c-0.2,0-0.4,0.2-0.4,0.4v11.3c0,0.2,0.2,0.4,0.4,0.4h8.9c0.2,0,0.4-0.2,0.4-0.4V8.3
		H16.8z"/>
	<line class="st1" x1="9.3" y1="11.8" x2="14.7" y2="11.8"/>
	<line class="st1" x1="12.4" y1="14.8" x2="14.7" y2="14.8"/>
</g>
</svg>
