<?xml version="1.0" encoding="utf-8"?>
<!-- Generator: Adobe Illustrator 22.1.0, SVG Export Plug-In . SVG Version: 6.00 Build 0)  -->
<svg version="1.1" id="Capa_1" xmlns="http://www.w3.org/2000/svg" xmlns:xlink="http://www.w3.org/1999/xlink" x="0px" y="0px"
	 viewBox="0 0 24 24" style="enable-background:new 0 0 24 24;" xml:space="preserve">
<style type="text/css">
	.st0{fill:none;stroke:#5C6BC0;stroke-width:0.805;stroke-miterlimit:10;}
	.st1{fill:url(#SVGID_1_);stroke:#5C6BC0;stroke-width:0.805;stroke-miterlimit:10;}
	.st2{fill:none;stroke:#FF9333;stroke-width:0.805;}
	.st3{fill:#5C6BC0;}
</style>
<path class="st0" d="M12,6.5c-1.7,0-3.1,1.3-3.3,2.9C7,9.6,5.8,11,5.8,12.8c0,1.8,1.5,3.4,3.4,3.4h5.7c1.8,0,3.4-1.5,3.4-3.4
	c0-1.7-1.2-3.1-2.9-3.4C15.1,7.8,13.7,6.5,12,6.5"/>
<linearGradient id="SVGID_1_" gradientUnits="userSpaceOnUse" x1="7.1021" y1="12.1925" x2="16.7118" y2="12.1925">
	<stop  offset="0" style="stop-color:#FFFFFF"/>
	<stop  offset="1" style="stop-color:#000000"/>
</linearGradient>
<line class="st1" x1="7.1" y1="17" x2="16.7" y2="7.4"/>
<ellipse id="ellipse-0" class="st2" cx="12" cy="12" rx="11.4" ry="11.4"/>
<circle class="st3" cx="7.1" cy="17" r="0.4"/>
<circle class="st3" cx="16.7" cy="7.4" r="0.4"/>
</svg>
