<?xml version="1.0" encoding="utf-8"?>
<!-- Generator: Adobe Illustrator 22.1.0, SVG Export Plug-In . SVG Version: 6.00 Build 0)  -->
<svg version="1.1" id="Capa_1" xmlns="http://www.w3.org/2000/svg" xmlns:xlink="http://www.w3.org/1999/xlink" x="0px" y="0px"
	 viewBox="0 0 24 24" style="enable-background:new 0 0 24 24;" xml:space="preserve">
<style type="text/css">
	.st0{fill:#FFFFFF;}
	.st1{display:none;}
	.st2{display:inline;}
	.st3{fill:none;stroke:#353535;stroke-width:0.805;stroke-miterlimit:10;}
	.st4{fill:#353535;}
</style>
<g id="Capa_1_1_">
	<g id="Capa_2_1_">
		<circle class="st0" cx="12" cy="12" r="12"/>
	</g>
</g>
<g id="Capa_2_2_" class="st1">
	<g class="st2">
		<path class="st0" d="M20,10.3L18,9V5.6c0-0.3-0.2-0.5-0.5-0.5h-2.3c-0.3,0-0.5,0.2-0.5,0.5v1.2l-2.5-1.7C12,5,11.8,5,11.7,5.1
			L4,10.3c-0.2,0.1-0.3,0.4-0.1,0.7c0.1,0.1,0.2,0.2,0.4,0.2c0.1,0,0.2,0,0.3-0.1l1.4-1v8.4C6,18.8,6.2,19,6.4,19h11.1
			c0.3,0,0.5-0.2,0.5-0.5v-8.4l1.4,1c0.1,0.1,0.2,0.1,0.3,0.1c0.1,0,0.3-0.1,0.4-0.2C20.2,10.8,20.2,10.5,20,10.3L20,10.3z M13,18.1
			h-2v-4.6h2V18.1z M17.1,18.1h-3.2V13c0-0.3-0.2-0.5-0.5-0.5h-2.9c-0.3,0-0.5,0.2-0.5,0.5v5.1H6.9V9.5L12,6l5.1,3.5V18.1z
			 M17.1,8.4l-1.4-0.9V6.1h1.4V8.4z"/>
	</g>
</g>
<g id="Capa_3">
	<g>
		<path class="st3" d="M19,11.1l-7-4.9c0,0-0.1,0-0.2,0l-7,4.9"/>
	</g>
	<g>
		<path class="st3" d="M14.9,8.2V6C14.9,6,14.9,6,15,6h1.9C17,6,17,6,17,6v11.8c0,0.1,0,0.1-0.1,0.1H7c-0.1,0-0.1,0-0.1-0.1V9.6"/>
	</g>
	<g>
		<path class="st3" d="M10.5,17.9V13c0-0.1,0-0.1,0.1-0.1h2.7c0.1,0,0.1,0,0.1,0.1v4.9"/>
	</g>
	<circle class="st4" cx="4.8" cy="11.1" r="0.4"/>
	<circle class="st4" cx="19" cy="11.1" r="0.4"/>
</g>
</svg>
