<?xml version="1.0" encoding="utf-8"?>
<!-- Generator: Adobe Illustrator 22.1.0, SVG Export Plug-In . SVG Version: 6.00 Build 0)  -->
<svg version="1.1" id="Capa_1" xmlns="http://www.w3.org/2000/svg" xmlns:xlink="http://www.w3.org/1999/xlink" x="0px" y="0px"
	 viewBox="0 0 24 24" style="enable-background:new 0 0 24 24;" xml:space="preserve">
<style type="text/css">
	.st0{fill:#FFFFFF;}
	.st1{fill:#727070;}
	.st2{fill:none;stroke:#353535;stroke-width:0.805;stroke-miterlimit:10;}
	.st3{fill:none;stroke:#353535;stroke-miterlimit:10;}
</style>
<g id="Capa_1_2_">
	<g id="Capa_1_1_">
		<g id="Capa_2_1_">
			<circle class="st0" cx="12" cy="12" r="12"/>
		</g>
	</g>
</g>
<g id="Capa_2_2_">
	<circle class="st1" cx="8.9" cy="18.8" r="0.4"/>
	<circle class="st1" cx="13.4" cy="18.8" r="0.4"/>
	<g>
		<g>
			<path class="st2" d="M9.7,8.7c-1.5-1.7-5.1-2-5.1-2c-0.1,0-0.1,0-0.1,0.1c0,0,0.8,3,2.5,4.3c0.8,0.6,1.9,0.7,2.6,0
				S10.4,9.4,9.7,8.7z"/>
		</g>
		<g>
			<path class="st2" d="M12.5,8.8c1.3-1.9,6.8-3.5,6.8-3.5c0.1,0,0.1,0,0.1,0.1c0,0-1,5-3.6,6.8c-1.1,0.8-2.4,0.9-3.4,0
				S11.8,9.9,12.5,8.8z"/>
		</g>
		<line class="st2" x1="8.9" y1="18.8" x2="13.3" y2="18.8"/>
		<path class="st3" d="M11.4,16.9c0.7-2.9-1.6-5.8-1.6-5.8"/>
		<path class="st3" d="M13.1,12.6c0,0-1.8,2.5-2,6.2"/>
	</g>
</g>
</svg>
