<?xml version="1.0" encoding="utf-8"?>
<!-- Generator: Adobe Illustrator 22.1.0, SVG Export Plug-In . SVG Version: 6.00 Build 0)  -->
<svg version="1.1" id="Logo_FIXED" xmlns="http://www.w3.org/2000/svg" xmlns:xlink="http://www.w3.org/1999/xlink" x="0px" y="0px"
	 viewBox="0 0 250.1 203.1" style="enable-background:new 0 0 250.1 203.1;" xml:space="preserve">
<style type="text/css">
	.st0{fill:#5D66BC;}
</style>
<path class="st0" d="M78.7,203.1c94.3,0,145.9-78.2,145.9-145.9c0-2.2,0-4.4-0.1-6.6c10-7.3,18.7-16.3,25.6-26.5
	c-9.4,4.1-19.3,6.9-29.5,8.1c10.7-6.4,18.7-16.5,22.5-28.4C233,9.8,222,14,210.5,16.2C191.1-4.5,158.6-5.5,137.9,14
	c-13.3,12.5-19,31.2-14.8,49C81.9,60.9,43.4,41.5,17.4,9.4C3.8,32.8,10.7,62.8,33.3,77.9c-8.2-0.2-16.1-2.4-23.3-6.4
	c0,0.2,0,0.4,0,0.6c0,24.4,17.2,45.4,41.2,50.3c-7.6,2.1-15.5,2.4-23.2,0.9c6.7,20.9,26,35.2,47.9,35.6c-18.2,14.3-40.6,22-63.7,22
	c-4.1,0-8.2-0.3-12.2-0.7C23.6,195.1,50.8,203.1,78.7,203.1"/>
</svg>
